<svg
  width="40"
  height="40"
  viewBox="0 0 40 40"
  fill="none"
  xmlns="http://www.w3.org/2000/svg">
  <path
    d="M12.1212 20.3634L18.9091 27.1512L29.697 13.333"
    stroke="#37A18B"
    stroke-width="2"
  />
  <circle cx="20" cy="20" r="19" stroke="#37A18B" stroke-width="2" />
</svg>
